2º/1º_cuatri/EC/p01/practica/alu.vcd
$date
	Tue Oct 15 21:27:06 2024
$end
$version
	Icarus Verilog
$end
$timescale
	10ps
$end
$scope module alu_tb $end
$var wire 1 ! t_z $end
$var wire 1 " t_s $end
$var wire 1 # t_c $end
$var wire 4 $ t_R [3:0] $end
$var reg 1 % error $end
$var reg 1 & error_R $end
$var reg 1 ' error_c $end
$var reg 1 ( error_s $end
$var reg 1 ) error_z $end
$var reg 4 * t_A [3:0] $end
$var reg 4 + t_B [3:0] $end
$var reg 3 , t_Op [2:0] $end
$var reg 1 - t_cin $end
$var integer 32 . errores [31:0] $end
$scope module mat $end
$var wire 4 / A [3:0] $end
$var wire 4 0 B [3:0] $end
$var wire 3 1 Op [2:0] $end
$var wire 1 - c_in $end
$var wire 1 ! zero $end
$var wire 1 " sign $end
$var wire 1 # carry $end
$var wire 4 2 R [3:0] $end
$var wire 4 3 OP2 [3:0] $end
$var wire 4 4 OP1 [3:0] $end
$var wire 4 5 Muxin2 [3:0] $end
$var wire 4 6 Muxin1 [3:0] $end
$scope module mux1 $end
$var wire 1 7 s $end
$var wire 4 8 Out [3:0] $end
$var wire 4 9 B [3:0] $end
$var wire 4 : A [3:0] $end
$upscope $end
$scope module preprocesador1 $end
$var wire 4 ; A [3:0] $end
$var wire 4 < B [3:0] $end
$var wire 3 = Op [2:0] $end
$var wire 1 > add1 $end
$var wire 1 ? cpl $end
$var wire 1 @ op1_A $end
$var wire 1 A op2_B $end
$var wire 1 B c $end
$var wire 1 C b $end
$var wire 1 D a $end
$var wire 4 E BMod [3:0] $end
$var wire 4 F B1 [3:0] $end
$var wire 4 G AMod [3:0] $end
$var wire 4 H A1 [3:0] $end
$scope module compl $end
$var wire 1 ? cpl $end
$var wire 4 I Out [3:0] $end
$var wire 4 J Inp [3:0] $end
$upscope $end
$scope module mux1 $end
$var wire 4 K A [3:0] $end
$var wire 4 L B [3:0] $end
$var wire 1 > s $end
$var wire 4 M Out [3:0] $end
$upscope $end
$scope module mux2 $end
$var wire 4 N A [3:0] $end
$var wire 4 O B [3:0] $end
$var wire 1 @ s $end
$var wire 4 P Out [3:0] $end
$upscope $end
$scope module mux3 $end
$var wire 4 Q A [3:0] $end
$var wire 4 R B [3:0] $end
$var wire 1 A s $end
$var wire 4 S Out [3:0] $end
$upscope $end
$upscope $end
$scope module sumador1 $end
$var wire 4 T A [3:0] $end
$var wire 4 U B [3:0] $end
$var wire 1 - c_in $end
$var wire 1 # c_out $end
$var wire 4 V S [3:0] $end
$upscope $end
$scope module ul $end
$var wire 4 W A [3:0] $end
$var wire 4 X B [3:0] $end
$var wire 2 Y S [1:0] $end
$var wire 4 Z Out [3:0] $end
$scope module celda0 $end
$var wire 2 [ S [1:0] $end
$var wire 1 \ a $end
$var wire 1 ] b $end
$var wire 1 ^ w1 $end
$var wire 1 _ w2 $end
$var wire 1 ` w3 $end
$var wire 1 a w4 $end
$var wire 1 b out $end
$scope module mux1 $end
$var wire 2 c S [1:0] $end
$var wire 1 ^ a $end
$var wire 1 _ b $end
$var wire 1 ` c $end
$var wire 1 a d $end
$var reg 1 b out $end
$upscope $end
$upscope $end
$scope module celda1 $end
$var wire 2 d S [1:0] $end
$var wire 1 e a $end
$var wire 1 f b $end
$var wire 1 g w1 $end
$var wire 1 h w2 $end
$var wire 1 i w3 $end
$var wire 1 j w4 $end
$var wire 1 k out $end
$scope module mux1 $end
$var wire 2 l S [1:0] $end
$var wire 1 g a $end
$var wire 1 h b $end
$var wire 1 i c $end
$var wire 1 j d $end
$var reg 1 k out $end
$upscope $end
$upscope $end
$scope module celda2 $end
$var wire 2 m S [1:0] $end
$var wire 1 n a $end
$var wire 1 o b $end
$var wire 1 p w1 $end
$var wire 1 q w2 $end
$var wire 1 r w3 $end
$var wire 1 s w4 $end
$var wire 1 t out $end
$scope module mux1 $end
$var wire 2 u S [1:0] $end
$var wire 1 p a $end
$var wire 1 q b $end
$var wire 1 r c $end
$var wire 1 s d $end
$var reg 1 t out $end
$upscope $end
$upscope $end
$scope module celda3 $end
$var wire 2 v S [1:0] $end
$var wire 1 w a $end
$var wire 1 x b $end
$var wire 1 y w1 $end
$var wire 1 z w2 $end
$var wire 1 { w3 $end
$var wire 1 | w4 $end
$var wire 1 } out $end
$scope module mux1 $end
$var wire 2 ~ S [1:0] $end
$var wire 1 y a $end
$var wire 1 z b $end
$var wire 1 { c $end
$var wire 1 | d $end
$var reg 1 } out $end
$upscope $end
$upscope $end
$upscope $end
$upscope $end
$scope task check $end
$var reg 5 !" expected_R [4:0] $end
$var reg 1 "" expected_c $end
$var reg 1 #" expected_s $end
$var reg 1 $" expected_z $end
$upscope $end
$upscope $end
$scope module sum4 $end
$var wire 4 %" A [3:0] $end
$var wire 4 &" B [3:0] $end
$var wire 1 '" c_in $end
$var wire 1 (" c_out $end
$var wire 1 )" c3 $end
$var wire 1 *" c2 $end
$var wire 1 +" c1 $end
$var wire 4 ," S [3:0] $end
$scope module full1 $end
$var wire 1 -" a $end
$var wire 1 ." b $end
$var wire 1 '" c_in $end
$var wire 1 /" sum $end
$var wire 1 +" c_out $end
$upscope $end
$scope module full2 $end
$var wire 1 0" a $end
$var wire 1 1" b $end
$var wire 1 +" c_in $end
$var wire 1 2" sum $end
$var wire 1 *" c_out $end
$upscope $end
$scope module full3 $end
$var wire 1 3" a $end
$var wire 1 4" b $end
$var wire 1 *" c_in $end
$var wire 1 5" sum $end
$var wire 1 )" c_out $end
$upscope $end
$scope module full4 $end
$var wire 1 6" a $end
$var wire 1 7" b $end
$var wire 1 )" c_in $end
$var wire 1 8" sum $end
$var wire 1 (" c_out $end
$upscope $end
$upscope $end
$enddefinitions $end
#0
$dumpvars
x8"
z7"
z6"
x5"
z4"
z3"
x2"
z1"
z0"
x/"
z."
z-"
bx ,"
x+"
x*"
x)"
x("
z'"
bz &"
bz %"
x$"
x#"
x""
bx !"
b0 ~
0}
1|
0{
0z
0y
0x
0w
b0 v
b0 u
0t
1s
0r
0q
0p
0o
0n
b0 m
b0 l
0k
1j
0i
0h
0g
0f
0e
b0 d
b0 c
0b
1a
0`
0_
0^
0]
0\
b0 [
b0 Z
b0 Y
b0 X
b0 W
b0 V
b0 U
b0 T
b0 S
b0 R
b0 Q
b0 P
b0 O
b0 N
b0 M
b1 L
b0 K
b0 J
b0 I
b0 H
b0 G
b0 F
b0 E
0D
0C
0B
0A
0@
0?
0>
b0 =
b0 <
b0 ;
b0 :
b0 9
b0 8
07
b0 6
b0 5
b0 4
b0 3
b0 2
b0 1
b0 0
b0 /
b0 .
0-
b0 ,
b0 +
b0 *
x)
x(
x'
x&
x%
b0 $
0#
0"
1!
$end
#1
0%
0)
0&
1$"
0'
0(
0#"
0""
b0 !"
#1000
b1 +
b1 0
b1 <
b1 R
#2000
b10 +
b10 0
b10 <
b10 R
#3000
b11 +
b11 0
b11 <
b11 R
#4000
b100 +
b100 0
b100 <
b100 R
#5000
b101 +
b101 0
b101 <
b101 R
#6000
b110 +
b110 0
b110 <
b110 R
#7000
b111 +
b111 0
b111 <
b111 R
#8000
b1000 +
b1000 0
b1000 <
b1000 R
#9000
b1001 +
b1001 0
b1001 <
b1001 R
#10000
b1010 +
b1010 0
b1010 <
b1010 R
#11000
b1011 +
b1011 0
b1011 <
b1011 R
#12000
b1100 +
b1100 0
b1100 <
b1100 R
#13000
b1101 +
b1101 0
b1101 <
b1101 R
#14000
b1110 +
b1110 0
b1110 <
b1110 R
#15000
b1111 +
b1111 0
b1111 <
b1111 R
#16000
0!
b1 $
b1 2
b1 8
1_
1`
b1 6
b1 :
b1 V
1]
b1 3
b1 E
b1 I
b1 U
b1 X
b1 F
b1 J
b1 S
b1 *
b1 /
b1 ;
b1 O
b1 Q
b0 +
b0 0
b0 <
b0 R
#16001
0$"
b1 !"
#17000
b1 +
b1 0
b1 <
b1 R
#18000
b10 +
b10 0
b10 <
b10 R
#19000
b11 +
b11 0
b11 <
b11 R
#20000
b100 +
b100 0
b100 <
b100 R
#21000
b101 +
b101 0
b101 <
b101 R
#22000
b110 +
b110 0
b110 <
b110 R
#23000
b111 +
b111 0
b111 <
b111 R
#24000
b1000 +
b1000 0
b1000 <
b1000 R
#25000
b1001 +
b1001 0
b1001 <
b1001 R
#26000
b1010 +
b1010 0
b1010 <
b1010 R
#27000
b1011 +
b1011 0
b1011 <
b1011 R
#28000
b1100 +
b1100 0
b1100 <
b1100 R
#29000
b1101 +
b1101 0
b1101 <
b1101 R
#30000
b1110 +
b1110 0
b1110 <
b1110 R
#31000
b1111 +
b1111 0
b1111 <
b1111 R
#32000
b10 $
b10 2
b10 8
0_
0`
1h
1i
b10 6
b10 :
b10 V
0]
1f
b10 3
b10 E
b10 I
b10 U
b10 X
b10 F
b10 J
b10 S
b10 *
b10 /
b10 ;
b10 O
b10 Q
b0 +
b0 0
b0 <
b0 R
#32001
b10 !"
#33000
b1 +
b1 0
b1 <
b1 R
#34000
b10 +
b10 0
b10 <
b10 R
#35000
b11 +
b11 0
b11 <
b11 R
#36000
b100 +
b100 0
b100 <
b100 R
#37000
b101 +
b101 0
b101 <
b101 R
#38000
b110 +
b110 0
b110 <
b110 R
#39000
b111 +
b111 0
b111 <
b111 R
#40000
b1000 +
b1000 0
b1000 <
b1000 R
#41000
b1001 +
b1001 0
b1001 <
b1001 R
#42000
b1010 +
b1010 0
b1010 <
b1010 R
#43000
b1011 +
b1011 0
b1011 <
b1011 R
#44000
b1100 +
b1100 0
b1100 <
b1100 R
#45000
b1101 +
b1101 0
b1101 <
b1101 R
#46000
b1110 +
b1110 0
b1110 <
b1110 R
#47000
b1111 +
b1111 0
b1111 <
b1111 R
#48000
b11 $
b11 2
b11 8
1_
1`
b11 6
b11 :
b11 V
1]
b11 3
b11 E
b11 I
b11 U
b11 X
b11 F
b11 J
b11 S
b11 *
b11 /
b11 ;
b11 O
b11 Q
b0 +
b0 0
b0 <
b0 R
#48001
b11 !"
#49000
b1 +
b1 0
b1 <
b1 R
#50000
b10 +
b10 0
b10 <
b10 R
#51000
b11 +
b11 0
b11 <
b11 R
#52000
b100 +
b100 0
b100 <
b100 R
#53000
b101 +
b101 0
b101 <
b101 R
#54000
b110 +
b110 0
b110 <
b110 R
#55000
b111 +
b111 0
b111 <
b111 R
#56000
b1000 +
b1000 0
b1000 <
b1000 R
#57000
b1001 +
b1001 0
b1001 <
b1001 R
#58000
b1010 +
b1010 0
b1010 <
b1010 R
#59000
b1011 +
b1011 0
b1011 <
b1011 R
#60000
b1100 +
b1100 0
b1100 <
b1100 R
#61000
b1101 +
b1101 0
b1101 <
b1101 R
#62000
b1110 +
b1110 0
b1110 <
b1110 R
#63000
b1111 +
b1111 0
b1111 <
b1111 R
#64000
b100 $
b100 2
b100 8
0_
0`
0h
0i
1q
1r
b100 6
b100 :
b100 V
0]
0f
1o
b100 3
b100 E
b100 I
b100 U
b100 X
b100 F
b100 J
b100 S
b100 *
b100 /
b100 ;
b100 O
b100 Q
b0 +
b0 0
b0 <
b0 R
#64001
b100 !"
#65000
b1 +
b1 0
b1 <
b1 R
#66000
b10 +
b10 0
b10 <
b10 R
#67000
b11 +
b11 0
b11 <
b11 R
#68000
b100 +
b100 0
b100 <
b100 R
#69000
b101 +
b101 0
b101 <
b101 R
#70000
b110 +
b110 0
b110 <
b110 R
#71000
b111 +
b111 0
b111 <
b111 R
#72000
b1000 +
b1000 0
b1000 <
b1000 R
#73000
b1001 +
b1001 0
b1001 <
b1001 R
#74000
b1010 +
b1010 0
b1010 <
b1010 R
#75000
b1011 +
b1011 0
b1011 <
b1011 R
#76000
b1100 +
b1100 0
b1100 <
b1100 R
#77000
b1101 +
b1101 0
b1101 <
b1101 R
#78000
b1110 +
b1110 0
b1110 <
b1110 R
#79000
b1111 +
b1111 0
b1111 <
b1111 R
#80000
b101 $
b101 2
b101 8
1_
1`
b101 6
b101 :
b101 V
1]
b101 3
b101 E
b101 I
b101 U
b101 X
b101 F
b101 J
b101 S
b101 *
b101 /
b101 ;
b101 O
b101 Q
b0 +
b0 0
b0 <
b0 R
#80001
b101 !"
#81000
b1 +
b1 0
b1 <
b1 R
#82000
b10 +
b10 0
b10 <
b10 R
#83000
b11 +
b11 0
b11 <
b11 R
#84000
b100 +
b100 0
b100 <
b100 R
#85000
b101 +
b101 0
b101 <
b101 R
#86000
b110 +
b110 0
b110 <
b110 R
#87000
b111 +
b111 0
b111 <
b111 R
#88000
b1000 +
b1000 0
b1000 <
b1000 R
#89000
b1001 +
b1001 0
b1001 <
b1001 R
#90000
b1010 +
b1010 0
b1010 <
b1010 R
#91000
b1011 +
b1011 0
b1011 <
b1011 R
#92000
b1100 +
b1100 0
b1100 <
b1100 R
#93000
b1101 +
b1101 0
b1101 <
b1101 R
#94000
b1110 +
b1110 0
b1110 <
b1110 R
#95000
b1111 +
b1111 0
b1111 <
b1111 R
#96000
b110 $
b110 2
b110 8
0_
0`
1h
1i
b110 6
b110 :
b110 V
0]
1f
b110 3
b110 E
b110 I
b110 U
b110 X
b110 F
b110 J
b110 S
b110 *
b110 /
b110 ;
b110 O
b110 Q
b0 +
b0 0
b0 <
b0 R
#96001
b110 !"
#97000
b1 +
b1 0
b1 <
b1 R
#98000
b10 +
b10 0
b10 <
b10 R
#99000
b11 +
b11 0
b11 <
b11 R
#100000
b100 +
b100 0
b100 <
b100 R
#101000
b101 +
b101 0
b101 <
b101 R
#102000
b110 +
b110 0
b110 <
b110 R
#103000
b111 +
b111 0
b111 <
b111 R
#104000
b1000 +
b1000 0
b1000 <
b1000 R
#105000
b1001 +
b1001 0
b1001 <
b1001 R
#106000
b1010 +
b1010 0
b1010 <
b1010 R
#107000
b1011 +
b1011 0
b1011 <
b1011 R
#108000
b1100 +
b1100 0
b1100 <
b1100 R
#109000
b1101 +
b1101 0
b1101 <
b1101 R
#110000
b1110 +
b1110 0
b1110 <
b1110 R
#111000
b1111 +
b1111 0
b1111 <
b1111 R
#112000
b111 $
b111 2
b111 8
1_
1`
b111 6
b111 :
b111 V
1]
b111 3
b111 E
b111 I
b111 U
b111 X
b111 F
b111 J
b111 S
b111 *
b111 /
b111 ;
b111 O
b111 Q
b0 +
b0 0
b0 <
b0 R
#112001
b111 !"
#113000
b1 +
b1 0
b1 <
b1 R
#114000
b10 +
b10 0
b10 <
b10 R
#115000
b11 +
b11 0
b11 <
b11 R
#116000
b100 +
b100 0
b100 <
b100 R
#117000
b101 +
b101 0
b101 <
b101 R
#118000
b110 +
b110 0
b110 <
b110 R
#119000
b111 +
b111 0
b111 <
b111 R
#120000
b1000 +
b1000 0
b1000 <
b1000 R
#121000
b1001 +
b1001 0
b1001 <
b1001 R
#122000
b1010 +
b1010 0
b1010 <
b1010 R
#123000
b1011 +
b1011 0
b1011 <
b1011 R
#124000
b1100 +
b1100 0
b1100 <
b1100 R
#125000
b1101 +
b1101 0
b1101 <
b1101 R
#126000
b1110 +
b1110 0
b1110 <
b1110 R
#127000
b1111 +
b1111 0
b1111 <
b1111 R
#128000
1"
b1000 $
b1000 2
b1000 8
0_
0`
0h
0i
0q
0r
1z
1{
b1000 6
b1000 :
b1000 V
0]
0f
0o
1x
b1000 3
b1000 E
b1000 I
b1000 U
b1000 X
b1000 F
b1000 J
b1000 S
b1000 *
b1000 /
b1000 ;
b1000 O
b1000 Q
b0 +
b0 0
b0 <
b0 R
#128001
1#"
b1000 !"
#129000
b1 +
b1 0
b1 <
b1 R
#130000
b10 +
b10 0
b10 <
b10 R
#131000
b11 +
b11 0
b11 <
b11 R
#132000
b100 +
b100 0
b100 <
b100 R
#133000
b101 +
b101 0
b101 <
b101 R
#134000
b110 +
b110 0
b110 <
b110 R
#135000
b111 +
b111 0
b111 <
b111 R
#136000
b1000 +
b1000 0
b1000 <
b1000 R
#137000
b1001 +
b1001 0
b1001 <
b1001 R
#138000
b1010 +
b1010 0
b1010 <
b1010 R
#139000
b1011 +
b1011 0
b1011 <
b1011 R
#140000
b1100 +
b1100 0
b1100 <
b1100 R
#141000
b1101 +
b1101 0
b1101 <
b1101 R
#142000
b1110 +
b1110 0
b1110 <
b1110 R
#143000
b1111 +
b1111 0
b1111 <
b1111 R
#144000
b1001 $
b1001 2
b1001 8
1_
1`
b1001 6
b1001 :
b1001 V
1]
b1001 3
b1001 E
b1001 I
b1001 U
b1001 X
b1001 F
b1001 J
b1001 S
b1001 *
b1001 /
b1001 ;
b1001 O
b1001 Q
b0 +
b0 0
b0 <
b0 R
#144001
b1001 !"
#145000
b1 +
b1 0
b1 <
b1 R
#146000
b10 +
b10 0
b10 <
b10 R
#147000
b11 +
b11 0
b11 <
b11 R
#148000
b100 +
b100 0
b100 <
b100 R
#149000
b101 +
b101 0
b101 <
b101 R
#150000
b110 +
b110 0
b110 <
b110 R
#151000
b111 +
b111 0
b111 <
b111 R
#152000
b1000 +
b1000 0
b1000 <
b1000 R
#153000
b1001 +
b1001 0
b1001 <
b1001 R
#154000
b1010 +
b1010 0
b1010 <
b1010 R
#155000
b1011 +
b1011 0
b1011 <
b1011 R
#156000
b1100 +
b1100 0
b1100 <
b1100 R
#157000
b1101 +
b1101 0
b1101 <
b1101 R
#158000
b1110 +
b1110 0
b1110 <
b1110 R
#159000
b1111 +
b1111 0
b1111 <
b1111 R
#160000
b1010 $
b1010 2
b1010 8
0_
0`
1h
1i
b1010 6
b1010 :
b1010 V
0]
1f
b1010 3
b1010 E
b1010 I
b1010 U
b1010 X
b1010 F
b1010 J
b1010 S
b1010 *
b1010 /
b1010 ;
b1010 O
b1010 Q
b0 +
b0 0
b0 <
b0 R
#160001
b1010 !"
#161000
b1 +
b1 0
b1 <
b1 R
#162000
b10 +
b10 0
b10 <
b10 R
#163000
b11 +
b11 0
b11 <
b11 R
#164000
b100 +
b100 0
b100 <
b100 R
#165000
b101 +
b101 0
b101 <
b101 R
#166000
b110 +
b110 0
b110 <
b110 R
#167000
b111 +
b111 0
b111 <
b111 R
#168000
b1000 +
b1000 0
b1000 <
b1000 R
#169000
b1001 +
b1001 0
b1001 <
b1001 R
#170000
b1010 +
b1010 0
b1010 <
b1010 R
#171000
b1011 +
b1011 0
b1011 <
b1011 R
#172000
b1100 +
b1100 0
b1100 <
b1100 R
#173000
b1101 +
b1101 0
b1101 <
b1101 R
#174000
b1110 +
b1110 0
b1110 <
b1110 R
#175000
b1111 +
b1111 0
b1111 <
b1111 R
#176000
b1011 $
b1011 2
b1011 8
1_
1`
b1011 6
b1011 :
b1011 V
1]
b1011 3
b1011 E
b1011 I
b1011 U
b1011 X
b1011 F
b1011 J
b1011 S
b1011 *
b1011 /
b1011 ;
b1011 O
b1011 Q
b0 +
b0 0
b0 <
b0 R
#176001
b1011 !"
#177000
b1 +
b1 0
b1 <
b1 R
#178000
b10 +
b10 0
b10 <
b10 R
#179000
b11 +
b11 0
b11 <
b11 R
#180000
b100 +
b100 0
b100 <
b100 R
#181000
b101 +
b101 0
b101 <
b101 R
#182000
b110 +
b110 0
b110 <
b110 R
#183000
b111 +
b111 0
b111 <
b111 R
#184000
b1000 +
b1000 0
b1000 <
b1000 R
#185000
b1001 +
b1001 0
b1001 <
b1001 R
#186000
b1010 +
b1010 0
b1010 <
b1010 R
#187000
b1011 +
b1011 0
b1011 <
b1011 R
#188000
b1100 +
b1100 0
b1100 <
b1100 R
#189000
b1101 +
b1101 0
b1101 <
b1101 R
#190000
b1110 +
b1110 0
b1110 <
b1110 R
#191000
b1111 +
b1111 0
b1111 <
b1111 R
#192000
b1100 $
b1100 2
b1100 8
0_
0`
0h
0i
1q
1r
b1100 6
b1100 :
b1100 V
0]
0f
1o
b1100 3
b1100 E
b1100 I
b1100 U
b1100 X
b1100 F
b1100 J
b1100 S
b1100 *
b1100 /
b1100 ;
b1100 O
b1100 Q
b0 +
b0 0
b0 <
b0 R
#192001
b1100 !"
#193000
b1 +
b1 0
b1 <
b1 R
#194000
b10 +
b10 0
b10 <
b10 R
#195000
b11 +
b11 0
b11 <
b11 R
#196000
b100 +
b100 0
b100 <
b100 R
#197000
b101 +
b101 0
b101 <
b101 R
#198000
b110 +
b110 0
b110 <
b110 R
#199000
b111 +
b111 0
b111 <
b111 R
#200000
b1000 +
b1000 0
b1000 <
b1000 R
#201000
b1001 +
b1001 0
b1001 <
b1001 R
#202000
b1010 +
b1010 0
b1010 <
b1010 R
#203000
b1011 +
b1011 0
b1011 <
b1011 R
#204000
b1100 +
b1100 0
b1100 <
b1100 R
#205000
b1101 +
b1101 0
b1101 <
b1101 R
#206000
b1110 +
b1110 0
b1110 <
b1110 R
#207000
b1111 +
b1111 0
b1111 <
b1111 R
#208000
b1101 $
b1101 2
b1101 8
1_
1`
b1101 6
b1101 :
b1101 V
1]
b1101 3
b1101 E
b1101 I
b1101 U
b1101 X
b1101 F
b1101 J
b1101 S
b1101 *
b1101 /
b1101 ;
b1101 O
b1101 Q
b0 +
b0 0
b0 <
b0 R
#208001
b1101 !"
#209000
b1 +
b1 0
b1 <
b1 R
#210000
b10 +
b10 0
b10 <
b10 R
#211000
b11 +
b11 0
b11 <
b11 R
#212000
b100 +
b100 0
b100 <
b100 R
#213000
b101 +
b101 0
b101 <
b101 R
#214000
b110 +
b110 0
b110 <
b110 R
#215000
b111 +
b111 0
b111 <
b111 R
#216000
b1000 +
b1000 0
b1000 <
b1000 R
#217000
b1001 +
b1001 0
b1001 <
b1001 R
#218000
b1010 +
b1010 0
b1010 <
b1010 R
#219000
b1011 +
b1011 0
b1011 <
b1011 R
#220000
b1100 +
b1100 0
b1100 <
b1100 R
#221000
b1101 +
b1101 0
b1101 <
b1101 R
#222000
b1110 +
b1110 0
b1110 <
b1110 R
#223000
b1111 +
b1111 0
b1111 <
b1111 R
#224000
b1110 $
b1110 2
b1110 8
0_
0`
1h
1i
b1110 6
b1110 :
b1110 V
0]
1f
b1110 3
b1110 E
b1110 I
b1110 U
b1110 X
b1110 F
b1110 J
b1110 S
b1110 *
b1110 /
b1110 ;
b1110 O
b1110 Q
b0 +
b0 0
b0 <
b0 R
#224001
b1110 !"
#225000
b1 +
b1 0
b1 <
b1 R
#226000
b10 +
b10 0
b10 <
b10 R
#227000
b11 +
b11 0
b11 <
b11 R
#228000
b100 +
b100 0
b100 <
b100 R
#229000
b101 +
b101 0
b101 <
b101 R
#230000
b110 +
b110 0
b110 <
b110 R
#231000
b111 +
b111 0
b111 <
b111 R
#232000
b1000 +
b1000 0
b1000 <
b1000 R
#233000
b1001 +
b1001 0
b1001 <
b1001 R
#234000
b1010 +
b1010 0
b1010 <
b1010 R
#235000
b1011 +
b1011 0
b1011 <
b1011 R
#236000
b1100 +
b1100 0
b1100 <
b1100 R
#237000
b1101 +
b1101 0
b1101 <
b1101 R
#238000
b1110 +
b1110 0
b1110 <
b1110 R
#239000
b1111 +
b1111 0
b1111 <
b1111 R
#240000
b1111 $
b1111 2
b1111 8
1_
1`
b1111 6
b1111 :
b1111 V
1]
b1111 3
b1111 E
b1111 I
b1111 U
b1111 X
b1111 F
b1111 J
b1111 S
b1111 *
b1111 /
b1111 ;
b1111 O
b1111 Q
b0 +
b0 0
b0 <
b0 R
#240001
b1111 !"
#241000
b1 +
b1 0
b1 <
b1 R
#242000
b10 +
b10 0
b10 <
b10 R
#243000
b11 +
b11 0
b11 <
b11 R
#244000
b100 +
b100 0
b100 <
b100 R
#245000
b101 +
b101 0
b101 <
b101 R
#246000
b110 +
b110 0
b110 <
b110 R
#247000
b111 +
b111 0
b111 <
b111 R
#248000
b1000 +
b1000 0
b1000 <
b1000 R
#249000
b1001 +
b1001 0
b1001 <
b1001 R
#250000
b1010 +
b1010 0
b1010 <
b1010 R
#251000
b1011 +
b1011 0
b1011 <
b1011 R
#252000
b1100 +
b1100 0
b1100 <
b1100 R
#253000
b1101 +
b1101 0
b1101 <
b1101 R
#254000
b1110 +
b1110 0
b1110 <
b1110 R
#255000
b1111 +
b1111 0
b1111 <
b1111 R
#256000
0_
0`
0h
0i
0q
0r
0z
0{
0"
0!
0]
0f
0o
0x
b1 $
b1 2
b1 8
b0 3
b0 E
b0 I
b0 U
b0 X
b1 6
b1 :
b1 V
0#
b0 F
b0 J
b0 S
1-
b0 *
b0 /
b0 ;
b0 O
b0 Q
b0 +
b0 0
b0 <
b0 R
#256001
0#"
b1 !"
#257000
b1 +
b1 0
b1 <
b1 R
#258000
b10 +
b10 0
b10 <
b10 R
#259000
b11 +
b11 0
b11 <
b11 R
#260000
b100 +
b100 0
b100 <
b100 R
#261000
b101 +
b101 0
b101 <
b101 R
#262000
b110 +
b110 0
b110 <
b110 R
#263000
b111 +
b111 0
b111 <
b111 R
#264000
b1000 +
b1000 0
b1000 <
b1000 R
#265000
b1001 +
b1001 0
b1001 <
b1001 R
#266000
b1010 +
b1010 0
b1010 <
b1010 R
#267000
b1011 +
b1011 0
b1011 <
b1011 R
#268000
b1100 +
b1100 0
b1100 <
b1100 R
#269000
b1101 +
b1101 0
b1101 <
b1101 R
#270000
b1110 +
b1110 0
b1110 <
b1110 R
#271000
b1111 +
b1111 0
b1111 <
b1111 R
#272000
b10 $
b10 2
b10 8
1_
1`
b10 6
b10 :
b10 V
1]
b1 3
b1 E
b1 I
b1 U
b1 X
b1 F
b1 J
b1 S
b1 *
b1 /
b1 ;
b1 O
b1 Q
b0 +
b0 0
b0 <
b0 R
#272001
b10 !"
#273000
b1 +
b1 0
b1 <
b1 R
#274000
b10 +
b10 0
b10 <
b10 R
#275000
b11 +
b11 0
b11 <
b11 R
#276000
b100 +
b100 0
b100 <
b100 R
#277000
b101 +
b101 0
b101 <
b101 R
#278000
b110 +
b110 0
b110 <
b110 R
#279000
b111 +
b111 0
b111 <
b111 R
#280000
b1000 +
b1000 0
b1000 <
b1000 R
#281000
b1001 +
b1001 0
b1001 <
b1001 R
#282000
b1010 +
b1010 0
b1010 <
b1010 R
#283000
b1011 +
b1011 0
b1011 <
b1011 R
#284000
b1100 +
b1100 0
b1100 <
b1100 R
#285000
b1101 +
b1101 0
b1101 <
b1101 R
#286000
b1110 +
b1110 0
b1110 <
b1110 R
#287000
b1111 +
b1111 0
b1111 <
b1111 R
#288000
b11 $
b11 2
b11 8
0_
0`
1h
1i
b11 6
b11 :
b11 V
0]
1f
b10 3
b10 E
b10 I
b10 U
b10 X
b10 F
b10 J
b10 S
b10 *
b10 /
b10 ;
b10 O
b10 Q
b0 +
b0 0
b0 <
b0 R
#288001
b11 !"
#289000
b1 +
b1 0
b1 <
b1 R
#290000
b10 +
b10 0
b10 <
b10 R
#291000
b11 +
b11 0
b11 <
b11 R
#292000
b100 +
b100 0
b100 <
b100 R
#293000
b101 +
b101 0
b101 <
b101 R
#294000
b110 +
b110 0
b110 <
b110 R
#295000
b111 +
b111 0
b111 <
b111 R
#296000
b1000 +
b1000 0
b1000 <
b1000 R
#297000
b1001 +
b1001 0
b1001 <
b1001 R
#298000
b1010 +
b1010 0
b1010 <
b1010 R
#299000
b1011 +
b1011 0
b1011 <
b1011 R
#300000
b1100 +
b1100 0
b1100 <
b1100 R
#301000
b1101 +
b1101 0
b1101 <
b1101 R
#302000
b1110 +
b1110 0
b1110 <
b1110 R
#303000
b1111 +
b1111 0
b1111 <
b1111 R
#304000
b100 $
b100 2
b100 8
1_
1`
b100 6
b100 :
b100 V
1]
b11 3
b11 E
b11 I
b11 U
b11 X
b11 F
b11 J
b11 S
b11 *
b11 /
b11 ;
b11 O
b11 Q
b0 +
b0 0
b0 <
b0 R
#304001
b100 !"
#305000
b1 +
b1 0
b1 <
b1 R
#306000
b10 +
b10 0
b10 <
b10 R
#307000
b11 +
b11 0
b11 <
b11 R
#308000
b100 +
b100 0
b100 <
b100 R
#309000
b101 +
b101 0
b101 <
b101 R
#310000
b110 +
b110 0
b110 <
b110 R
#311000
b111 +
b111 0
b111 <
b111 R
#312000
b1000 +
b1000 0
b1000 <
b1000 R
#313000
b1001 +
b1001 0
b1001 <
b1001 R
#314000
b1010 +
b1010 0
b1010 <
b1010 R
#315000
b1011 +
b1011 0
b1011 <
b1011 R
#316000
b1100 +
b1100 0
b1100 <
b1100 R
#317000
b1101 +
b1101 0
b1101 <
b1101 R
#318000
b1110 +
b1110 0
b1110 <
b1110 R
#319000
b1111 +
b1111 0
b1111 <
b1111 R
#320000
b101 $
b101 2
b101 8
0_
0`
0h
0i
1q
1r
b101 6
b101 :
b101 V
0]
0f
1o
b100 3
b100 E
b100 I
b100 U
b100 X
b100 F
b100 J
b100 S
b100 *
b100 /
b100 ;
b100 O
b100 Q
b0 +
b0 0
b0 <
b0 R
#320001
b101 !"
#321000
b1 +
b1 0
b1 <
b1 R
#322000
b10 +
b10 0
b10 <
b10 R
#323000
b11 +
b11 0
b11 <
b11 R
#324000
b100 +
b100 0
b100 <
b100 R
#325000
b101 +
b101 0
b101 <
b101 R
#326000
b110 +
b110 0
b110 <
b110 R
#327000
b111 +
b111 0
b111 <
b111 R
#328000
b1000 +
b1000 0
b1000 <
b1000 R
#329000
b1001 +
b1001 0
b1001 <
b1001 R
#330000
b1010 +
b1010 0
b1010 <
b1010 R
#331000
b1011 +
b1011 0
b1011 <
b1011 R
#332000
b1100 +
b1100 0
b1100 <
b1100 R
#333000
b1101 +
b1101 0
b1101 <
b1101 R
#334000
b1110 +
b1110 0
b1110 <
b1110 R
#335000
b1111 +
b1111 0
b1111 <
b1111 R
#336000
b110 $
b110 2
b110 8
1_
1`
b110 6
b110 :
b110 V
1]
b101 3
b101 E
b101 I
b101 U
b101 X
b101 F
b101 J
b101 S
b101 *
b101 /
b101 ;
b101 O
b101 Q
b0 +
b0 0
b0 <
b0 R
#336001
b110 !"
#337000
b1 +
b1 0
b1 <
b1 R
#338000
b10 +
b10 0
b10 <
b10 R
#339000
b11 +
b11 0
b11 <
b11 R
